<?xml version="1.0" encoding="utf-8"?>
<!-- Generator: Adobe Illustrator 23.0.1, SVG Export Plug-In . SVG Version: 6.00 Build 0)  -->
<svg version="1.1" xmlns="http://www.w3.org/2000/svg" xmlns:xlink="http://www.w3.org/1999/xlink" x="0px" y="0px" width="574px"
	 height="469px" viewBox="0 0 574 469" style="enable-background:new 0 0 574 469;" xml:space="preserve">
<style type="text/css">
	.st0{fill:#151128;}
	.st1{fill:url(#SVGID_1_);}
	.st2{fill:url(#SVGID_2_);}
	.st3{opacity:0.1;fill:#151128;}
	.st4{fill:none;stroke:#151128;stroke-width:6;stroke-linecap:round;stroke-linejoin:round;stroke-miterlimit:10;}
	.st5{opacity:0.3;fill:none;stroke:#151128;stroke-width:6;stroke-linecap:round;stroke-linejoin:round;stroke-miterlimit:10;}
	.st6{fill:#272359;}
	.st7{filter:url(#Adobe_OpacityMaskFilter);}
	.st8{mask:url(#SVGID_3_);}
	.st9{fill:url(#SVGID_4_);}
	.st10{fill:#554488;}
	.st11{fill:#E24329;}
	.st12{fill:#FCA326;}
	.st13{fill:#373D47;}
	.st14{fill:#37474F;}
	.st15{fill:#6B4FBB;}
	.st16{fill:#0A021E;}
	.st17{fill:#251B3F;}
	.st18{fill:url(#SVGID_5_);}
	.st19{fill:#555593;}
	.st20{fill:#FC6D26;}
	.st21{fill:url(#SVGID_6_);}
	.st22{fill:url(#SVGID_7_);}
	.st23{fill:none;stroke:#44417F;stroke-width:13;stroke-linejoin:round;stroke-miterlimit:10;}
	.st24{fill:#44417F;}
	.st25{fill:none;stroke:#44417F;stroke-width:3;stroke-linejoin:round;stroke-miterlimit:10;}
	.st26{fill:none;stroke:#413270;stroke-width:3;stroke-linejoin:round;stroke-miterlimit:10;}
	.st27{fill:#F7561E;}
	.st28{fill:#D72D20;}
	.st29{fill:#F8911E;}
	.st30{fill:none;stroke:#695C9E;stroke-width:4;stroke-linecap:round;stroke-linejoin:round;stroke-miterlimit:10;}
	.st31{opacity:0.3;fill:none;stroke:#695C9E;stroke-width:2;stroke-linecap:round;stroke-linejoin:round;stroke-miterlimit:10;}
	.st32{fill:none;stroke:#695C9E;stroke-width:4;stroke-miterlimit:10;}
	.st33{fill:#6262CC;}
	.st34{fill:#9795F9;}
	.st35{fill:#3F3177;}
	.st36{fill:#E6E6E6;}
	.st37{fill:#FFFFFF;}
	.st38{fill:#434080;}
	.st39{fill:#9795F9;stroke:#9795F9;stroke-width:3.2459;stroke-linecap:round;stroke-linejoin:round;stroke-miterlimit:10;}
	.st40{fill:none;stroke:#9795F9;stroke-width:8;stroke-linecap:round;stroke-linejoin:round;stroke-miterlimit:10;}
	.st41{fill:none;stroke:#6262CC;stroke-width:4;stroke-linecap:round;stroke-linejoin:round;stroke-miterlimit:10;}
	.st42{fill:none;stroke:#3F3177;stroke-width:4;stroke-linecap:round;stroke-linejoin:round;stroke-miterlimit:10;}
	
		.st43{fill:none;stroke:#3F3177;stroke-width:4;stroke-linecap:round;stroke-linejoin:round;stroke-miterlimit:10;stroke-dasharray:10.8195,10.8195;}
	.st44{opacity:0.45;}
	.st45{fill:none;stroke:#6262CC;stroke-miterlimit:10;}
	.st46{fill:none;stroke:#6262CC;stroke-width:3;stroke-linecap:round;stroke-miterlimit:10;}
	.st47{fill:none;stroke:url(#SVGID_8_);stroke-width:3;stroke-linecap:round;stroke-miterlimit:10;}
	.st48{fill:none;stroke:#9795F9;stroke-linecap:round;stroke-linejoin:round;stroke-miterlimit:10;}
	.st49{fill:none;stroke:url(#SVGID_9_);stroke-width:3;stroke-linecap:round;stroke-linejoin:round;stroke-miterlimit:10;}
	.st50{fill:none;stroke:url(#SVGID_10_);stroke-width:3;stroke-linecap:round;stroke-linejoin:round;stroke-miterlimit:10;}
	.st51{fill:none;stroke:url(#SVGID_11_);stroke-width:3;stroke-linecap:round;stroke-linejoin:round;stroke-miterlimit:10;}
	.st52{fill:none;stroke:url(#SVGID_12_);stroke-width:3;stroke-linecap:round;stroke-linejoin:round;stroke-miterlimit:10;}
	.st53{fill:none;stroke:url(#SVGID_13_);stroke-width:3;stroke-linecap:round;stroke-linejoin:round;stroke-miterlimit:10;}
	.st54{fill:none;stroke:#9795F9;stroke-width:2;stroke-linecap:round;stroke-linejoin:round;stroke-miterlimit:10;}
	.st55{fill:none;stroke:url(#SVGID_14_);stroke-width:3;stroke-linecap:round;stroke-linejoin:round;stroke-miterlimit:10;}
	.st56{fill:none;stroke:url(#SVGID_15_);stroke-width:3;stroke-linecap:round;stroke-linejoin:round;stroke-miterlimit:10;}
	.st57{fill:none;stroke:url(#SVGID_16_);stroke-width:3;stroke-linecap:round;stroke-linejoin:round;stroke-miterlimit:10;}
	.st58{fill:none;stroke:url(#SVGID_17_);stroke-width:3;stroke-linecap:round;stroke-linejoin:round;stroke-miterlimit:10;}
	.st59{fill:none;stroke:url(#SVGID_18_);stroke-width:3;stroke-linecap:round;stroke-linejoin:round;stroke-miterlimit:10;}
	.st60{fill:none;stroke:#000000;stroke-width:7.2695;stroke-linecap:round;stroke-linejoin:round;stroke-miterlimit:10;}
	.st61{fill:none;stroke:url(#SVGID_19_);stroke-width:0.75;stroke-miterlimit:10;}
	.st62{fill:none;stroke:url(#SVGID_20_);stroke-width:0.75;stroke-miterlimit:10;}
	.st63{fill:url(#SVGID_21_);}
	.st64{fill:url(#SVGID_22_);}
	.st65{filter:url(#Adobe_OpacityMaskFilter_1_);}
	.st66{mask:url(#SVGID_23_);}
	.st67{fill:#B7B7F9;}
	.st68{fill:url(#SVGID_24_);}
	.st69{fill:url(#SVGID_25_);}
	.st70{opacity:0.9;}
	.st71{filter:url(#Adobe_OpacityMaskFilter_2_);}
	.st72{mask:url(#SVGID_26_);}
	.st73{fill:url(#SVGID_27_);}
	.st74{fill:none;stroke:url(#SVGID_28_);stroke-width:0.75;stroke-miterlimit:10;}
	.st75{fill:none;stroke:url(#SVGID_29_);stroke-width:0.75;stroke-miterlimit:10;}
	.st76{fill:url(#SVGID_30_);}
	.st77{fill:url(#SVGID_31_);}
	.st78{fill:url(#SVGID_32_);}
	.st79{fill:none;stroke:#151128;stroke-width:4;stroke-linejoin:round;stroke-miterlimit:10;}
	.st80{fill:url(#SVGID_33_);}
	.st81{fill:none;stroke:#9795F9;stroke-width:10;stroke-linecap:round;stroke-linejoin:round;stroke-miterlimit:10;}
	.st82{fill:none;stroke:#6262CC;stroke-width:4.9191;stroke-linecap:round;stroke-linejoin:round;stroke-miterlimit:10;}
	.st83{fill:none;stroke:#3F3177;stroke-width:5;stroke-linecap:round;stroke-linejoin:round;stroke-miterlimit:10;}
	.st84{fill:none;stroke:#6262CC;stroke-width:5;stroke-linecap:round;stroke-linejoin:round;stroke-miterlimit:10;}
	.st85{fill:none;stroke:#9795F9;stroke-width:3.5272;stroke-linecap:round;stroke-linejoin:round;stroke-miterlimit:10;}
	.st86{fill:none;stroke:#6262CC;stroke-width:1.7636;stroke-linecap:round;stroke-linejoin:round;stroke-miterlimit:10;}
	.st87{fill:none;stroke:#3F3177;stroke-width:1.7636;stroke-linecap:round;stroke-linejoin:round;stroke-miterlimit:10;}
	.st88{opacity:0.6;}
	.st89{fill:none;stroke:#9795F9;stroke-width:15.2491;stroke-linecap:round;stroke-linejoin:round;stroke-miterlimit:10;}
	.st90{fill:none;stroke:#6262CC;stroke-width:7.6246;stroke-linecap:round;stroke-linejoin:round;stroke-miterlimit:10;}
	.st91{fill:none;stroke:#3F3177;stroke-width:7.6246;stroke-linecap:round;stroke-linejoin:round;stroke-miterlimit:10;}
	.st92{opacity:0.25;}
	.st93{fill:none;stroke:#9795F9;stroke-width:3.4374;stroke-linecap:round;stroke-linejoin:round;stroke-miterlimit:10;}
	.st94{fill:none;stroke:#6262CC;stroke-width:1.6909;stroke-linecap:round;stroke-linejoin:round;stroke-miterlimit:10;}
	.st95{fill:none;stroke:#3F3177;stroke-width:1.7187;stroke-linecap:round;stroke-linejoin:round;stroke-miterlimit:10;}
	.st96{fill:none;stroke:#9795F9;stroke-width:6;stroke-linecap:round;stroke-linejoin:round;stroke-miterlimit:10;}
	.st97{fill:none;stroke:#6262CC;stroke-width:3;stroke-linecap:round;stroke-linejoin:round;stroke-miterlimit:10;}
	.st98{fill:none;stroke:#3F3177;stroke-width:3;stroke-linecap:round;stroke-linejoin:round;stroke-miterlimit:10;}
	.st99{clip-path:url(#SVGID_35_);}
	.st100{fill:none;stroke:#9795F9;stroke-width:4.0573;stroke-linecap:round;stroke-linejoin:round;stroke-miterlimit:10;}
	.st101{fill:none;stroke:#6262CC;stroke-width:2.0286;stroke-linecap:round;stroke-linejoin:round;stroke-miterlimit:10;}
	.st102{fill:none;stroke:#3F3177;stroke-width:2.0286;stroke-linecap:round;stroke-linejoin:round;stroke-miterlimit:10;}
	.st103{clip-path:url(#SVGID_37_);}
	.st104{fill:none;stroke:#9795F9;stroke-width:3.2478;stroke-linecap:round;stroke-linejoin:round;stroke-miterlimit:10;}
	.st105{fill:none;stroke:#6262CC;stroke-width:1.5976;stroke-linecap:round;stroke-linejoin:round;stroke-miterlimit:10;}
	.st106{fill:none;stroke:#3F3177;stroke-width:1.6239;stroke-linecap:round;stroke-linejoin:round;stroke-miterlimit:10;}
	.st107{clip-path:url(#SVGID_39_);}
	.st108{clip-path:url(#SVGID_41_);}
	.st109{clip-path:url(#SVGID_43_);}
	.st110{filter:url(#Adobe_OpacityMaskFilter_3_);}
	.st111{mask:url(#SVGID_44_);}
	.st112{fill:url(#SVGID_45_);}
	.st113{fill:none;stroke:url(#SVGID_46_);stroke-width:0.75;stroke-miterlimit:10;}
	.st114{fill:none;stroke:url(#SVGID_47_);stroke-width:0.75;stroke-miterlimit:10;}
	.st115{fill:url(#SVGID_48_);}
	.st116{fill:url(#SVGID_49_);}
	.st117{fill:url(#SVGID_50_);}
	.st118{fill-rule:evenodd;clip-rule:evenodd;fill:none;}
	.st119{fill:url(#SVGID_51_);}
</style>
<g id="background">
</g>
<g id="logo__x2B__messaging">
	<linearGradient id="SVGID_1_" gradientUnits="userSpaceOnUse" x1="287" y1="369" x2="287" y2="469">
		<stop  offset="4.810653e-04" style="stop-color:#151128;stop-opacity:0.5"/>
		<stop  offset="1" style="stop-color:#151128;stop-opacity:0"/>
	</linearGradient>
	<rect y="369" class="st1" width="574" height="100"/>
	<path class="st3" d="M465.471,412H108.529c-3.606,0-6.529-2.686-6.529-6l15-34h340l15,34C472,409.314,469.077,412,465.471,412z"/>
	<line class="st4" x1="3" y1="369" x2="571" y2="369"/>
	<g>
		<polygon class="st6" points="409.962,155.959 163.963,155.959 123.962,201.961 449.962,201.961 		"/>
		<g>
			<defs>
				<filter id="Adobe_OpacityMaskFilter" filterUnits="userSpaceOnUse" x="186.746" y="105.044" width="200.745" height="177.38">
					<feFlood  style="flood-color:white;flood-opacity:1" result="back"/>
					<feBlend  in="SourceGraphic" in2="back" mode="normal"/>
				</filter>
			</defs>
			<mask maskUnits="userSpaceOnUse" x="186.746" y="105.044" width="200.745" height="177.38" id="SVGID_2_">
				<g class="st7">
					
						<image style="overflow:visible;" width="206" height="182" xlink:href="4CD61F72B1295332.jpg"  transform="matrix(1 0 0 1 183.9991 102.9844)">
					</image>
				</g>
			</mask>
			<g style="mask:url(#SVGID_2_);">
				<linearGradient id="SVGID_3_" gradientUnits="userSpaceOnUse" x1="287.1181" y1="282.4239" x2="287.1181" y2="105.0441">
					<stop  offset="0" style="stop-color:#B7B7F9"/>
					<stop  offset="1" style="stop-color:#B7B7F9;stop-opacity:0"/>
				</linearGradient>
				<rect x="186.746" y="105.044" style="fill:url(#SVGID_3_);" width="200.745" height="177.38"/>
			</g>
		</g>
		<linearGradient id="SVGID_4_" gradientUnits="userSpaceOnUse" x1="163.9602" y1="205.0072" x2="163.9602" y2="155.9593">
			<stop  offset="0" style="stop-color:#151128;stop-opacity:0"/>
			<stop  offset="1" style="stop-color:#151128;stop-opacity:0.9"/>
		</linearGradient>
		
			<line style="fill:none;stroke:url(#SVGID_4_);stroke-width:0.75;stroke-miterlimit:10;" x1="163.96" y1="155.959" x2="163.96" y2="205.007"/>
		<linearGradient id="SVGID_5_" gradientUnits="userSpaceOnUse" x1="410.1248" y1="205.0072" x2="410.1248" y2="155.9593">
			<stop  offset="0" style="stop-color:#151128;stop-opacity:0"/>
			<stop  offset="1" style="stop-color:#151128;stop-opacity:0.9"/>
		</linearGradient>
		
			<line style="fill:none;stroke:url(#SVGID_5_);stroke-width:0.75;stroke-miterlimit:10;" x1="410.125" y1="155.959" x2="410.125" y2="205.007"/>
		
			<linearGradient id="SVGID_6_" gradientUnits="userSpaceOnUse" x1="-2558.3252" y1="162.0076" x2="-2439.3413" y2="162.0076" gradientTransform="matrix(-1 0 0 1 -2029.3016 0)">
			<stop  offset="0" style="stop-color:#6262CC"/>
			<stop  offset="1" style="stop-color:#3F3177"/>
		</linearGradient>
		<path class="st21" d="M410.04,155.959l57.995-33.372c1.122-0.646,2.488-0.708,3.664-0.168l53.828,24.716
			c4.419,2.029,4.716,8.196,0.512,10.64l-75.999,44.187L410.04,155.959z"/>
		<linearGradient id="SVGID_7_" gradientUnits="userSpaceOnUse" x1="44.9763" y1="162.0076" x2="163.9602" y2="162.0076">
			<stop  offset="0" style="stop-color:#6262CC"/>
			<stop  offset="1" style="stop-color:#3F3177"/>
		</linearGradient>
		<path class="st22" d="M163.96,155.959l-57.995-33.372c-1.122-0.646-2.487-0.708-3.664-0.168l-53.828,24.716
			c-4.419,2.029-4.716,8.196-0.512,10.64l75.999,44.187L163.96,155.959z"/>
		<linearGradient id="SVGID_8_" gradientUnits="userSpaceOnUse" x1="286.9625" y1="385.9611" x2="286.9625" y2="201.9611">
			<stop  offset="0" style="stop-color:#6262CC"/>
			<stop  offset="0.1004" style="stop-color:#5C59BD"/>
			<stop  offset="0.3382" style="stop-color:#4F489E"/>
			<stop  offset="0.5712" style="stop-color:#463B89"/>
			<stop  offset="0.7952" style="stop-color:#41347B"/>
			<stop  offset="1" style="stop-color:#3F3177"/>
		</linearGradient>
		<path style="fill:url(#SVGID_8_);" d="M443.962,385.961h-314c-3.314,0-6-2.686-6-6v-178h326v178
			C449.962,383.275,447.276,385.961,443.962,385.961z"/>
		<g>
			<g id="g44_9_" transform="translate(0.532000, 0.774933)">
				<path id="path46_9_" class="st27" d="M381.715,99.848l-10.7-32.875L349.848,1.765c-1.086-3.334-5.815-3.334-6.94,0
					l-21.167,65.169h-70.326L230.248,1.765c-1.086-3.334-5.815-3.334-6.939,0L202.18,66.934l-10.7,32.914
					c-0.969,2.985,0.078,6.28,2.636,8.141l92.462,67.185l92.462-67.185C381.599,106.129,382.684,102.833,381.715,99.848"/>
			</g>
			<g id="g48_9_" transform="translate(155.197863, 1.160267)">
				<path id="path50_9_" class="st28" d="M131.938,174.745L131.938,174.745l35.163-108.202H96.775L131.938,174.745L131.938,174.745z
					"/>
			</g>
			<g id="g56_9_" transform="translate(28.531199, 1.160800)">
				<path id="path58_9_" class="st27" d="M258.579,174.745L223.416,66.542H174.18L258.579,174.745L258.579,174.745z"/>
			</g>
			<g id="g64_9_" transform="translate(0.088533, 0.255867)">
				<path id="path66_9_" class="st29" d="M202.606,67.484L202.606,67.484l-10.7,32.875c-0.969,2.985,0.078,6.28,2.636,8.141
					l92.462,67.185L202.606,67.484L202.606,67.484z"/>
			</g>
			<g id="g72_9_" transform="translate(29.421866, 280.255593)">
				<path id="path74_9_" class="st28" d="M173.286-212.516h49.274l-21.206-65.169c-1.086-3.334-5.815-3.334-6.94,0L173.286-212.516
					L173.286-212.516z"/>
			</g>
			<g id="g76_9_" transform="translate(247.197860, 1.160800)">
				<path id="path78_9_" class="st27" d="M39.938,174.745L75.101,66.542h49.274L39.938,174.745L39.938,174.745z"/>
			</g>
			<g id="g80_9_" transform="translate(246.307061, 0.255867)">
				<path id="path82_9_" class="st29" d="M125.231,67.484L125.231,67.484l10.7,32.875c0.969,2.985-0.078,6.28-2.636,8.141
					l-92.462,67.147L125.231,67.484L125.231,67.484z"/>
			</g>
			<g id="g84_9_" transform="translate(336.973725, 280.255593)">
				<path id="path86_9_" class="st28" d="M34.59-212.516h-49.274l21.167-65.169c1.086-3.334,5.815-3.334,6.94,0L34.59-212.516
					L34.59-212.516z"/>
			</g>
		</g>
		<g>
			<polyline class="st118" points="167.221,291.405 167.221,362.139 408.91,362.139 408.91,291.405 			"/>
			<polyline class="st118" points="167.221,291.405 167.221,362.139 408.91,362.139 408.91,291.405 			"/>
			<polyline class="st118" points="167.221,291.405 167.221,362.139 408.91,362.139 408.91,291.405 			"/>
			<path class="st0" d="M344.074,356.209L344.074,356.209c-0.397-0.38-0.417-1.007-0.038-1.406l0.362-0.399l4.568-5.093h-20.024
				c-5.916,0-11.586-2.357-15.777-6.518l-9.71-9.672l-8.628,0.57l-0.265,8.418c0,0.019,0,0.019,0,0l9.69,9.654
				c3.264,3.269,7.073,5.796,11.341,7.564c4.247,1.767,8.742,2.642,13.35,2.642h20.555L344.074,356.209z"/>
			<polyline class="st118" points="167.221,291.405 167.221,362.139 408.91,362.139 408.91,291.405 			"/>
			<polyline class="st118" points="167.221,291.405 167.221,362.139 408.91,362.139 408.91,291.405 			"/>
			<polyline class="st118" points="167.221,291.405 167.221,362.139 408.91,362.139 408.91,291.405 			"/>
			<polyline class="st118" points="167.221,291.405 167.221,362.139 408.91,362.139 408.91,291.405 			"/>
			<polyline class="st118" points="167.221,291.405 167.221,362.139 408.91,362.139 408.91,291.405 			"/>
			<g>
				<path class="st0" d="M271.747,301.497c-3.261-3.27-7.091-5.798-11.341-7.564c-4.247-1.768-8.742-2.642-13.35-2.642h-20.004
					c-0.02,0.076-0.076,0.114-0.114,0.17l-5.898,6.272l5.594,6.214h20.421c5.918,0,11.588,2.358,15.78,6.52l12.268,12.237
					l0.228-7.43c0-0.742,0.586-1.368,1.327-1.406l0.531-0.02l6.618-0.342L271.747,301.497z"/>
			</g>
			<g>
				<path class="st0" d="M349.062,291.461c-0.038-0.056-0.096-0.094-0.114-0.17h-20.007c-4.609,0-9.103,0.874-13.35,2.642
					c-4.267,1.766-8.077,4.294-11.341,7.564l-16.212,16.154l-3.984,3.952l7.549,0.228h0.018c0.533,0,0.988,0.418,1.006,0.97
					l0.02,0.532l0.379,7.222l3.944-3.934h-0.02l16.215-16.154c4.191-4.162,9.862-6.52,15.777-6.52h20.424l5.594-6.214
					L349.062,291.461z"/>
			</g>
			<g>
				<path class="st0" d="M290.027,333.328l-0.417-8.417l-8.59-0.266l-1.99,1.994h0.018l-16.212,16.155
					c-4.191,4.181-9.862,6.518-15.78,6.518h-20.024l4.571,5.093l0.359,0.399c0.379,0.399,0.361,1.026-0.038,1.406l-5.402,5.777
					h20.535c4.609,0,9.103-0.893,13.35-2.661c4.25-1.768,8.08-4.295,11.341-7.564l16.215-16.155l2.103-2.09
					C290.048,333.442,290.048,333.386,290.027,333.328z"/>
			</g>
			<g>
				<path class="st0" d="M217.418,298.379c-0.379-0.398-0.361-1.026,0.038-1.406l5.347-5.682h-20.328
					c-17.75,0-32.485,13.225-34.912,30.369l6.542,6.155l6.182-5.585c2.048-10.378,11.245-18.284,22.187-18.284h19.949l-4.647-5.168
					L217.418,298.379z"/>
			</g>
			<g>
				<path class="st0" d="M222.823,349.311h-20.348c-12.288,0-22.358-9.958-22.623-22.217l-4.627,4.2l-0.436,0.38
					c-0.417,0.4-1.081,0.38-1.479-0.038l-6.087-5.737c0,0.246,0,0.494,0,0.722c0,19.498,15.816,35.348,35.253,35.348h19.817
					c0.038-0.076,0.094-0.171,0.152-0.247l5.898-6.271L222.823,349.311z"/>
			</g>
			<g>
				<path class="st0" d="M373.505,291.291h-20.31l5.349,5.682c0.397,0.38,0.417,1.008,0.038,1.406l-0.362,0.4l-4.647,5.168h19.931
					c10.941,0,20.138,7.888,22.206,18.284l6.184,5.585l6.54-6.155C406.008,304.516,391.275,291.291,373.505,291.291z"/>
			</g>
			<g>
				<path class="st0" d="M402.691,331.636c-0.399,0.418-1.062,0.438-1.481,0.038l-0.435-0.38l-4.646-4.2
					c-0.245,12.259-10.335,22.217-22.623,22.217h-20.328l-5.519,6.138l5.898,6.271c0.056,0.076,0.114,0.171,0.152,0.247h19.797
					c19.456,0,35.271-15.85,35.271-35.348c0-0.228,0-0.476,0-0.704L402.691,331.636z"/>
			</g>
			<g>
				<path class="st0" d="M218.022,326.058c0,0.52-0.086,0.997-0.26,1.431c-0.173,0.435-0.417,0.809-0.73,1.122
					c-0.314,0.314-0.691,0.557-1.132,0.73c-0.441,0.173-0.93,0.26-1.465,0.26h-2.706v-7.088h2.706c0.536,0,1.024,0.087,1.465,0.262
					c0.441,0.175,0.819,0.418,1.132,0.73c0.314,0.312,0.557,0.685,0.73,1.12C217.935,325.062,218.022,325.539,218.022,326.058z
					 M216.674,326.058c0-0.389-0.052-0.738-0.157-1.047c-0.105-0.309-0.253-0.57-0.446-0.784c-0.193-0.214-0.427-0.378-0.703-0.492
					c-0.276-0.114-0.587-0.172-0.934-0.172h-1.378v4.99h1.378c0.346,0,0.657-0.057,0.934-0.172c0.276-0.114,0.511-0.279,0.703-0.493
					c0.193-0.214,0.342-0.475,0.446-0.784C216.622,326.796,216.674,326.447,216.674,326.058z"/>
				<path class="st0" d="M223.424,322.514v1.049h-3.142v1.966h2.475v1.015h-2.475v2.005h3.142v1.054h-4.47v-7.088H223.424z"/>
				<path class="st0" d="M223.879,322.514h1.064c0.115,0,0.208,0.028,0.279,0.083c0.072,0.056,0.126,0.127,0.162,0.216l1.667,4.323
					c0.055,0.141,0.108,0.295,0.159,0.463c0.051,0.168,0.099,0.346,0.145,0.532c0.075-0.376,0.168-0.707,0.279-0.995l1.662-4.323
					c0.029-0.075,0.081-0.144,0.157-0.206c0.075-0.062,0.168-0.093,0.279-0.093h1.064l-2.863,7.088h-1.191L223.879,322.514z"/>
			</g>
			<g>
				<path class="st0" d="M351.962,326.058c0,0.52-0.087,1.001-0.26,1.443c-0.173,0.443-0.417,0.826-0.73,1.15
					c-0.314,0.324-0.691,0.576-1.132,0.757c-0.441,0.181-0.93,0.272-1.466,0.272c-0.536,0-1.025-0.091-1.468-0.272
					c-0.443-0.181-0.822-0.434-1.137-0.757c-0.315-0.324-0.56-0.707-0.733-1.15c-0.173-0.443-0.26-0.924-0.26-1.443
					c0-0.52,0.086-1.001,0.26-1.444c0.173-0.443,0.417-0.826,0.733-1.15c0.315-0.323,0.694-0.576,1.137-0.757
					c0.443-0.181,0.932-0.272,1.468-0.272c0.536,0,1.024,0.091,1.466,0.274c0.441,0.183,0.818,0.435,1.132,0.757
					c0.314,0.322,0.557,0.704,0.73,1.147C351.875,325.057,351.962,325.539,351.962,326.058z M350.609,326.058
					c0-0.389-0.051-0.738-0.154-1.047c-0.103-0.309-0.251-0.571-0.444-0.787c-0.193-0.216-0.427-0.381-0.704-0.495
					c-0.276-0.114-0.587-0.172-0.934-0.172c-0.347,0-0.659,0.057-0.936,0.172c-0.278,0.115-0.514,0.279-0.708,0.495
					c-0.194,0.216-0.344,0.478-0.449,0.787c-0.104,0.309-0.157,0.658-0.157,1.047s0.052,0.738,0.157,1.047
					c0.105,0.309,0.254,0.57,0.449,0.784c0.194,0.214,0.431,0.378,0.708,0.493c0.278,0.114,0.59,0.172,0.936,0.172
					c0.346,0,0.658-0.057,0.934-0.172c0.276-0.114,0.511-0.279,0.704-0.493c0.193-0.214,0.34-0.475,0.444-0.784
					C350.558,326.796,350.609,326.447,350.609,326.058z"/>
				<path class="st0" d="M354.235,327.107v2.495h-1.318v-7.088h2.309c0.474,0,0.884,0.055,1.23,0.167s0.632,0.267,0.858,0.466
					c0.226,0.199,0.392,0.438,0.5,0.716c0.108,0.278,0.162,0.582,0.162,0.912c0,0.343-0.057,0.658-0.172,0.944
					c-0.115,0.286-0.286,0.532-0.515,0.738c-0.229,0.206-0.515,0.366-0.858,0.48c-0.343,0.115-0.745,0.172-1.206,0.172H354.235z
					 M354.235,326.078h0.99c0.242,0,0.453-0.03,0.632-0.091s0.328-0.147,0.446-0.26c0.118-0.113,0.206-0.25,0.265-0.412
					c0.059-0.162,0.088-0.342,0.088-0.542c0-0.189-0.029-0.361-0.088-0.515c-0.059-0.153-0.147-0.284-0.265-0.392
					c-0.118-0.108-0.267-0.19-0.446-0.248c-0.18-0.057-0.391-0.086-0.632-0.086h-0.99V326.078z"/>
				<path class="st0" d="M362.634,323.803c-0.036,0.072-0.078,0.123-0.125,0.152c-0.047,0.029-0.104,0.044-0.169,0.044
					c-0.065,0-0.139-0.025-0.221-0.076c-0.082-0.051-0.178-0.107-0.289-0.169c-0.111-0.062-0.241-0.118-0.39-0.169
					c-0.149-0.051-0.324-0.076-0.527-0.076c-0.183,0-0.342,0.022-0.478,0.066c-0.135,0.044-0.25,0.105-0.343,0.184
					c-0.093,0.078-0.162,0.172-0.208,0.282c-0.046,0.11-0.069,0.23-0.069,0.36c0,0.167,0.047,0.306,0.14,0.417
					s0.216,0.206,0.37,0.284c0.154,0.078,0.328,0.149,0.525,0.211c0.196,0.062,0.396,0.128,0.6,0.199
					c0.204,0.07,0.404,0.152,0.601,0.245c0.196,0.093,0.371,0.211,0.525,0.353c0.153,0.142,0.277,0.316,0.37,0.522
					c0.093,0.206,0.14,0.456,0.14,0.75c0,0.32-0.055,0.62-0.164,0.899c-0.11,0.279-0.27,0.523-0.48,0.73
					c-0.211,0.208-0.468,0.371-0.772,0.49c-0.304,0.119-0.652,0.179-1.044,0.179c-0.226,0-0.448-0.022-0.667-0.066
					c-0.219-0.044-0.429-0.107-0.63-0.189c-0.201-0.082-0.389-0.18-0.564-0.294c-0.175-0.114-0.331-0.242-0.468-0.382l0.382-0.632
					c0.036-0.046,0.079-0.084,0.13-0.115c0.051-0.031,0.107-0.047,0.169-0.047c0.082,0,0.17,0.034,0.265,0.101
					c0.095,0.067,0.207,0.141,0.336,0.223c0.129,0.082,0.281,0.156,0.456,0.223c0.175,0.067,0.385,0.101,0.63,0.101
					c0.376,0,0.667-0.089,0.873-0.267s0.309-0.434,0.309-0.767c0-0.186-0.047-0.338-0.14-0.456c-0.093-0.118-0.216-0.216-0.37-0.297
					c-0.154-0.08-0.328-0.148-0.525-0.203c-0.196-0.055-0.395-0.116-0.598-0.181c-0.203-0.066-0.402-0.144-0.598-0.235
					c-0.196-0.091-0.371-0.211-0.525-0.358c-0.154-0.147-0.277-0.331-0.37-0.552c-0.093-0.221-0.14-0.492-0.14-0.816
					c0-0.258,0.051-0.51,0.154-0.755c0.103-0.245,0.253-0.462,0.451-0.652c0.198-0.189,0.44-0.341,0.728-0.456
					c0.287-0.114,0.616-0.171,0.985-0.171c0.418,0,0.804,0.065,1.157,0.196c0.353,0.131,0.654,0.314,0.902,0.549L362.634,323.803z"
					/>
			</g>
		</g>
		<linearGradient id="SVGID_9_" gradientUnits="userSpaceOnUse" x1="286.9625" y1="275.9602" x2="286.9625" y2="201.9611">
			<stop  offset="0" style="stop-color:#6262CC"/>
			<stop  offset="1" style="stop-color:#3F3177"/>
		</linearGradient>
		<path style="fill:url(#SVGID_9_);" d="M471.056,275.96H102.869c-4.257,0-7.16-4.309-5.56-8.254l26.654-65.745h326l26.654,65.745
			C478.216,271.651,475.313,275.96,471.056,275.96z"/>
	</g>
</g>
<g id="filenames">
</g>
</svg>
